{
    "jet_collection": "AntiKt10LCTopoTrimmedPtFrac5SmallR20",
    "jet_calib_file": "JES_MC16recommendation_FatJet_JMS_comb_19Jan2018.config",
    "cal_seq": "EtaJES_JMS",
    "cal_area": "00-04-81",
    "save_xbb_score": true,
    "n_const": 0,
    "top_tag_config": "JSSWTopTaggerDNN/JSSDNNTagger_AntiKt10LCTopoTrimmed_TopQuarkContained_MC15c_20170824_BOOSTSetup80Eff.dat",
    "subjets": [
        {
            "input_name": "GhostVR30Rmax4Rmin02TrackJet",
            "output_name": "VR",
            "min_jet_pt": 7000,
            "n_tracks": 20,
            "get_subjets_from_parent": true,
            "n_subjets_to_save": 3,
            "variables": {
                "file": "variables/btag.json"
            }
        },
        {
            "input_name": "GhostVR30Rmax4Rmin02TrackJetGhostTag",
            "output_name": "VRGhostTag",
            "min_jet_pt": 5000,
            "n_tracks": 0,
            "get_subjets_from_parent": true,
            "n_subjets_to_save": 3,
            "variables": {
                "file": "variables/btag.json"
            }
        },
        {
            "input_name": "ExKt2SubJets",
            "output_name": "ExKt2",
            "min_jet_pt": 5000,
            "n_tracks": 0,
            "get_subjets_from_parent": false,
            "n_subjets_to_save": 2,
            "variables": {
                "file": "variables/btag-minimal.json"
            }
        },
        {
            "input_name": "ExKt3SubJets",
            "output_name": "ExKt3",
            "min_jet_pt": 5000,
            "n_tracks": 0,
            "get_subjets_from_parent": false,
            "n_subjets_to_save": 3,
            "variables": {
                "file": "variables/btag-minimal.json"
            }
        },
        {
            "input_name": "ExCoM2SubJets",
            "output_name": "ExCoM2",
            "min_jet_pt": 5000,
            "n_tracks": 0,
            "get_subjets_from_parent": false,
            "n_subjets_to_save": 2,
            "variables": {
                "file": "variables/btag-minimal.json"
            }
        }
    ]
}
